Proyecto de fin de módulo. Vuelos de NYC
…
destinos_retraso <- vuelos %>%
  group_by(dest) %>%
  summarise(
    retraso_promedio_llegada = mean(arr_delay, na.rm = TRUE),
    total_vuelos = n(),
    .groups = "drop"
  ) %>%
  left_join(aeropuertos, by = c("dest" = "faa")) %>%  # unir dest con faa
  select(name, dest, retraso_promedio_llegada, total_vuelos) %>%
  arrange(desc(retraso_promedio_llegada))

print(destinos_retraso)

# A tibble: 105 × 4
   name                          dest  retraso_promedio_llegada total_vuelos
   <chr>                         <chr>                    <dbl>        <int>
 1 Columbia Metropolitan         CAE                       41.8          116
 2 Tulsa Intl                    TUL                       33.7          315
 3 Will Rogers World             OKC                       30.6          346
 4 Jackson Hole Airport          JAC                       28.1           25
 5 Mc Ghee Tyson                 TYS                       24.1          631
 6 Dane Co Rgnl Truax Fld        MSN                       20.2          572
 7 Richmond Intl                 RIC                       20.1         2454
 8 Akron Canton Regional Airport CAK                       19.7          864
 9 Des Moines Intl               DSM                       19.0          569
10 Gerald R Ford Intl            GRR                       18.2          765
# ℹ 95 more rows
…
vuelos %>%
  left_join(aviones, by = "tailnum") %>%
  #debemos quitar nos NAs para que no afecten el resultado
  filter( !is.na(arr_delay)) %>%  
  #filter(!is.na(manufacturer), !is.na(arr_delay)) %>%  
  group_by(manufacturer) %>%
  summarise(
    retraso_promedio = mean(arr_delay),
    total_vuelos = n(),
    .groups = "drop"
  ) %>%
  arrange(desc(retraso_promedio))

# A tibble: 36 × 3
   manufacturer           retraso_promedio total_vuelos
   <chr>                             <dbl>        <int>
 1 AGUSTA SPA                        30.6            31
 2 CANADAIR                          16.7          1492
 3 EMBRAER                           13.9         63530
 4 FRIEDEMANN JON                    12.9            56
 5 AVIAT AIRCRAFT INC                12.3            17
 6 BARKER JACK L                     11.1           250
 7 LAMBERT RICHARD                    9.08           53
 8 CESSNA                             8.62          623
 9 ROBINSON HELICOPTER CO             8.19          281
10 CIRRUS DESIGN CORP                 8.17          289
# ℹ 26 more rows
…
Si filtramos fabricantes con mas de 50 vuelos nos queda:

vuelos %>%
  left_join(aviones, by = "tailnum") %>%
  filter(!is.na(manufacturer), !is.na(arr_delay)) %>%  # limpiar NA
  group_by(manufacturer) %>%
  summarise(
    retraso_promedio = mean(arr_delay),
    total_vuelos = n(),
    .groups = "drop"
  ) %>%
  filter(total_vuelos > 50) %>%   #filtrar para fabricantes con mas de 50 vuelos
  arrange(desc(retraso_promedio))

# A tibble: 22 × 3
   manufacturer           retraso_promedio total_vuelos
   <chr>                             <dbl>        <int>
 1 CANADAIR                          16.7          1492
 2 EMBRAER                           13.9         63530
 3 FRIEDEMANN JON                    12.9            56
 4 BARKER JACK L                     11.1           250
 5 LAMBERT RICHARD                    9.08           53
 6 CESSNA                             8.62          623
 7 ROBINSON HELICOPTER CO             8.19          281
 8 CIRRUS DESIGN CORP                 8.17          289
 9 CANADAIR LTD                       8.14           93
10 BOMBARDIER INC                     8.12        27430
# ℹ 12 more rows
…
14. ¿Qué aeropuertos de destino tienen el mayor retraso promedio en la llegada para vuelos desde NYC?

vuelos %>%
  filter(!is.na(arr_delay)) %>%
  group_by(dest) %>%
  summarise(
    retraso_promedio = mean(arr_delay),
    total_vuelos = n(),
    .groups = "drop"
  ) %>%
  left_join(aeropuertos, by = c("dest" = "faa")) %>%
  select(dest, name, retraso_promedio, total_vuelos) %>%
  arrange(desc(retraso_promedio))

# A tibble: 104 × 4
   dest  name                          retraso_promedio total_vuelos
   <chr> <chr>                                    <dbl>        <int>
 1 CAE   Columbia Metropolitan                     41.8          106
 2 TUL   Tulsa Intl                                33.7          294
 3 OKC   Will Rogers World                         30.6          315
 4 JAC   Jackson Hole Airport                      28.1           21
 5 TYS   Mc Ghee Tyson                             24.1          578
 6 MSN   Dane Co Rgnl Truax Fld                    20.2          556
 7 RIC   Richmond Intl                             20.1         2346
 8 CAK   Akron Canton Regional Airport             19.7          842
 9 DSM   Des Moines Intl                           19.0          523
10 GRR   Gerald R Ford Intl                        18.2          728
# ℹ 94 more rows
…
Los aeropuertos de destino con mayor retraso promedio en la llegada incluyen Columbia Metropolitan, Tulsa International y Will Rogers World. Estos destinos presentan demoras significativamente más altas en comparación con otros, lo que podría estar relacionado con factores operativos, distancia o condiciones externas. En general, se observa que ciertos aeropuertos concentran mayores niveles de retraso en la llegada de vuelos provenientes de NYC.

15. ¿Cómo varían los retrasos en la salida según la hora del día en cada aeropuerto de NYC?

vuelos %>%
  filter(!is.na(dep_delay)) %>%   # quitar NAs
  group_by(origin, hour) %>%
  summarise(
    retraso_promedio = mean(dep_delay),
    total_vuelos = n(),
    .groups = "drop"
  )%>%
  arrange(desc(retraso_promedio))

# A tibble: 56 × 4
   origin  hour retraso_promedio total_vuelos
   <chr>  <dbl>            <dbl>        <int>
 1 EWR       19             31.1         5748
 2 EWR       20             27.5         6777
 3 EWR       22             26.6           61
 4 EWR       21             26.1         4225
 5 JFK       21             26.1         3413
 6 LGA       22             25.8          192
 7 EWR       17             25.3         8402
 8 EWR       18             25.1         6873
 9 EWR       16             23.1         7327
10 LGA       20             22.5         3245
# ℹ 46 more rows
…
